Code/LEDCounterFSM/simulation/qsim/LEDCounterFSMDemo.msim.vcd
$comment
	File created using the following command:
		vcd file LEDCounterFSMDemo.msim.vcd -direction
$end
$date
	Fri May 29 14:50:50 2015
$end
$version
	ModelSim Version 10.3c
$end
$timescale
	1ps
$end

$scope module LEDCounterFSM_vlg_vec_tst $end
$var reg 1 ! clk $end
$var reg 1 " enable $end
$var reg 1 # reset $end
$var wire 1 $ final $end
$var wire 1 % ledRed0 $end
$var wire 1 & ledRed1 $end
$var wire 1 ' ledRed2 $end
$var wire 1 ( sampler $end

$scope module i1 $end
$var wire 1 ) gnd $end
$var wire 1 * vcc $end
$var wire 1 + unknown $end
$var tri1 1 , devclrn $end
$var tri1 1 - devpor $end
$var tri1 1 . devoe $end
$var wire 1 / final~output_o $end
$var wire 1 0 ledRed0~output_o $end
$var wire 1 1 ledRed1~output_o $end
$var wire 1 2 ledRed2~output_o $end
$var wire 1 3 clk~input_o $end
$var wire 1 4 enable~input_o $end
$var wire 1 5 s_currentState.A~0_combout $end
$var wire 1 6 reset~input_o $end
$var wire 1 7 s_currentState.A~q $end
$var wire 1 8 s_nextState.B~0_combout $end
$var wire 1 9 s_currentState.B~q $end
$var wire 1 : s_currentState.C~q $end
$var wire 1 ; s_currentState.D~q $end
$var wire 1 < s_currentState.E~0_combout $end
$var wire 1 = s_currentState.E~q $end
$var wire 1 > ledRed0~2_combout $end
$var wire 1 ? ledRed1~2_combout $end
$upscope $end
$upscope $end
$enddefinitions $end
#0
$dumpvars
0!
0"
0#
0$
0%
0&
0'
x(
0)
1*
x+
1,
1-
1.
0/
00
01
02
03
04
05
06
07
08
09
0:
0;
0<
0=
1>
0?
$end
#25000
1!
0(
13
#50000
0!
1(
03
#60000
1"
14
0(
18
15
#75000
1!
1(
13
17
19
12
0>
1'
08
1?
11
10
1&
1%
#100000
0"
0!
04
0(
03
#125000
1!
1(
13
1:
09
02
0'
#150000
0!
0(
03
#175000
1!
1(
13
1;
0:
1<
0?
01
0&
#200000
0!
0(
03
#225000
1!
1(
13
0;
1=
1/
1>
1$
00
0%
#250000
0!
0(
03
#275000
1!
1(
13
#300000
0!
0(
03
#325000
1!
1(
13
#350000
0!
0(
03
#375000
1!
1(
13
#380000
1#
16
0(
07
0=
0/
0$
05
0<
#400000
0!
1(
03
#425000
1!
0(
13
#450000
0!
1(
03
#475000
1!
0(
13
#480000
0#
06
1(
#500000
0!
0(
03
#525000
1!
1(
13
#550000
0!
0(
03
#575000
1!
1(
13
#600000
0!
0(
03
#625000
1!
1(
13
#650000
0!
0(
03
#675000
1!
1(
13
#700000
0!
0(
03
#725000
1!
1(
13
#750000
0!
0(
03
#775000
1!
1(
13
#800000
0!
0(
03
#825000
1!
1(
13
#850000
0!
0(
03
#875000
1!
1(
13
#900000
0!
0(
03
#925000
1!
1(
13
#950000
0!
0(
03
#975000
1!
1(
13
