Code/MainFSM_v2/simulation/qsim/MainFSM.msim.vcd
$comment
	File created using the following command:
		vcd file MainFSM.msim.vcd -direction
$end
$date
	Thu May 28 21:02:32 2015
$end
$version
	ModelSim Version 10.3c
$end
$timescale
	1ps
$end

$scope module MainFSM_vlg_vec_tst $end
$var reg 1 ! clk $end
$var reg 1 " final $end
$var reg 1 # inputKey $end
$var reg 1 $ isActive $end
$var reg 1 % reset $end
$var reg 1 & timeExp $end
$var wire 1 ' counter_En $end
$var wire 1 ( hex_en $end
$var wire 1 ) hex_error $end
$var wire 1 * ledCounter_En $end
$var wire 1 + ledGreen_En $end
$var wire 1 , newTime $end
$var wire 1 - sampler $end

$scope module i1 $end
$var wire 1 . gnd $end
$var wire 1 / vcc $end
$var wire 1 0 unknown $end
$var tri1 1 1 devclrn $end
$var tri1 1 2 devpor $end
$var tri1 1 3 devoe $end
$var wire 1 4 ledCounter_En~output_o $end
$var wire 1 5 newTime~output_o $end
$var wire 1 6 ledGreen_En~output_o $end
$var wire 1 7 counter_En~output_o $end
$var wire 1 8 hex_en~output_o $end
$var wire 1 9 hex_error~output_o $end
$var wire 1 : clk~input_o $end
$var wire 1 ; inputKey~input_o $end
$var wire 1 < final~input_o $end
$var wire 1 = reset~input_o $end
$var wire 1 > PS~18_combout $end
$var wire 1 ? PS.A~q $end
$var wire 1 @ PS~9_combout $end
$var wire 1 A PS~10_combout $end
$var wire 1 B PS.B~q $end
$var wire 1 C isActive~input_o $end
$var wire 1 D PS~11_combout $end
$var wire 1 E PS~12_combout $end
$var wire 1 F PS.C~q $end
$var wire 1 G timeExp~input_o $end
$var wire 1 H PS~19_combout $end
$var wire 1 I PS~20_combout $end
$var wire 1 J PS.D~q $end
$var wire 1 K PS~13_combout $end
$var wire 1 L PS~14_combout $end
$var wire 1 M PS.E~q $end
$var wire 1 N PS~15_combout $end
$var wire 1 O PS.G~q $end
$var wire 1 P counter_En~2_combout $end
$var wire 1 Q PS~16_combout $end
$var wire 1 R PS~17_combout $end
$var wire 1 S PS.F~q $end
$var wire 1 T hex_en~1_combout $end
$upscope $end
$upscope $end
$enddefinitions $end
#0
$dumpvars
0!
0"
0#
0$
0%
0&
0'
0(
0)
0*
0+
0,
x-
0.
1/
x0
11
12
13
04
05
06
07
08
09
0:
0;
0<
0=
0>
0?
0@
0A
0B
0C
0D
0E
0F
0G
0H
0I
0J
0K
0L
0M
0N
0O
0P
0Q
0R
0S
0T
$end
#20000
1%
1=
0-
#25000
1!
1-
1:
#40000
0%
0=
0-
#50000
0!
1-
0:
#75000
1!
0-
1:
#100000
1#
0!
1;
1-
0:
1@
1>
1A
#125000
1!
0-
1:
1?
1B
14
1*
#150000
0!
1-
0:
#160000
0#
0;
0-
#175000
1!
1-
1:
#200000
0!
0-
0:
#220000
1"
1<
1-
1D
0@
1E
0A
#225000
1!
0-
1:
1F
0B
04
15
0*
1,
#250000
0!
1-
0:
#275000
1!
0-
1:
#280000
0"
0<
1-
#300000
0!
0-
0:
#320000
1$
1C
1-
0D
1I
0E
#325000
1!
0-
1:
1J
0F
05
1H
0,
0I
1I
#350000
0!
1-
0:
#375000
1!
0-
1:
#400000
0!
1-
0:
#425000
1!
0-
1:
#450000
0!
1-
0:
#475000
1!
0-
1:
#500000
0!
1-
0:
#520000
1&
0$
1G
0C
0-
1K
0H
1L
0I
#525000
1!
1-
1:
0J
1M
16
1+
1P
17
1'
#550000
0!
0-
0:
#575000
1!
1-
1:
#580000
0&
0G
0-
#600000
0!
1-
0:
#620000
1#
1;
0-
0K
1N
0L
#625000
1!
1-
1:
1O
0M
06
0+
1T
18
1(
#650000
0!
0-
0:
#675000
1!
1-
1:
#700000
0!
0-
0:
#720000
0#
0;
1-
#725000
1!
0-
1:
#750000
0!
1-
0:
#775000
1!
0-
1:
#800000
0!
1-
0:
#825000
1!
0-
1:
#850000
0!
1-
0:
#875000
1!
0-
1:
#900000
0!
1-
0:
#925000
1!
0-
1:
#950000
0!
1-
0:
#975000
1!
0-
1:
